{
  "slug": "02-function",
  "title": "2. 기능 설계 RULE — Function Design\r",
  "category": "rules",
  "source": "synapse-shared",
  "tags": [],
  "summary": "",
  "metadata": {
    "lastUpdated": "2026-05-14",
    "status": "active",
    "completionRate": null
  },
  "toc": [
    {
      "level": 2,
      "text": "2.1 API 설계 [MUST]",
      "anchor": "21-api-설계-must"
    },
    {
      "level": 3,
      "text": "규칙",
      "anchor": "규칙"
    },
    {
      "level": 3,
      "text": "URI 예시 테이블",
      "anchor": "uri-예시-테이블"
    },
    {
      "level": 2,
      "text": "2.2 페이지네이션 [SHOULD]",
      "anchor": "22-페이지네이션-should"
    },
    {
      "level": 3,
      "text": "규칙",
      "anchor": "규칙"
    },
    {
      "level": 3,
      "text": "✅ Good — 커서 기반 응답",
      "anchor": "-good-커서-기반-응답"
    },
    {
      "level": 3,
      "text": "❌ Bad — 일반 API에 offset 사용",
      "anchor": "-bad-일반-api에-offset-사용"
    },
    {
      "level": 2,
      "text": "2.3 에러 응답 [MUST]",
      "anchor": "23-에러-응답-must"
    },
    {
      "level": 3,
      "text": "규칙",
      "anchor": "규칙"
    },
    {
      "level": 3,
      "text": "✅ Good — RFC 7807 준수",
      "anchor": "-good-rfc-7807-준수"
    },
    {
      "level": 3,
      "text": "❌ Bad — 비표준 에러 응답",
      "anchor": "-bad-비표준-에러-응답"
    },
    {
      "level": 2,
      "text": "2.4 Soft Delete [MUST]",
      "anchor": "24-soft-delete-must"
    },
    {
      "level": 3,
      "text": "규칙",
      "anchor": "규칙"
    },
    {
      "level": 3,
      "text": "✅ Good — Soft Delete Entity",
      "anchor": "-good-soft-delete-entity"
    },
    {
      "level": 3,
      "text": "❌ Bad — 사용자 데이터 물리 삭제",
      "anchor": "-bad-사용자-데이터-물리-삭제"
    },
    {
      "level": 2,
      "text": "2.5 DIP/OCP 준수 [MUST]",
      "anchor": "25-dipocp-준수-must"
    },
    {
      "level": 3,
      "text": "규칙",
      "anchor": "규칙"
    },
    {
      "level": 3,
      "text": "✅ Good — 인터페이스 의존",
      "anchor": "-good-인터페이스-의존"
    },
    {
      "level": 3,
      "text": "❌ Bad — 구현체 직접 참조",
      "anchor": "-bad-구현체-직접-참조"
    },
    {
      "level": 2,
      "text": "요약 체크리스트",
      "anchor": "요약-체크리스트"
    }
  ],
  "body": "# 2. 기능 설계 RULE — Function Design\r\n\r\n> **프로젝트**: Synapse — 통합 학습-지식 그래프 SaaS  \r\n> **버전**: v1.0 | 2026-05-12  \r\n> **대상**: 백엔드 개발자 전원  \r\n> **준수 수준**: [MUST] 반드시 / [SHOULD] 권장 / [MAY] 선택\r\n\r\n---\r\n\r\n## 2.1 API 설계 [MUST]\r\n\r\n모든 REST API는 일관된 URI 컨벤션을 따른다.\r\n\r\n### 규칙\r\n\r\n- URI는 **kebab-case** 사용\r\n- depth 는 **3~4단계** 이내로 제한\r\n- prefix는 항상 `/api/v1/`\r\n- 리소스명은 **복수형 명사**\r\n- 동사 사용 금지 (행위는 HTTP Method로 표현)\r\n\r\n### URI 예시 테이블\r\n\r\n| 상태 | URI | 설명 |\r\n|------|-----|------|\r\n| ✅ Good | `GET /api/v1/notes` | 노트 목록 조회 |\r\n| ✅ Good | `POST /api/v1/learning-cards` | 학습카드 생성 |\r\n| ✅ Good | `GET /api/v1/users/{id}/knowledge-graphs` | 유저의 지식그래프 조회 (3단계) |\r\n| ✅ Good | `PATCH /api/v1/communities/{id}/posts/{postId}` | 커뮤니티 게시글 수정 (4단계) |\r\n| ❌ Bad | `GET /api/v1/getNote` | 동사 사용, camelCase |\r\n| ❌ Bad | `POST /api/v1/learning_cards/create` | snake_case, 불필요한 동사 |\r\n| ❌ Bad | `GET /api/v1/users/{id}/notes/{nid}/chunks/{cid}/tags/{tid}` | 5단계 초과 |\r\n| ❌ Bad | `GET /v1/notes` | `/api/` prefix 누락 |\r\n\r\n> **이유**: URI 일관성은 프론트엔드-백엔드 간 커뮤니케이션 비용을 줄이고, Gateway 라우팅 규칙을 단순하게 유지해줌. depth 제한은 URL 가독성과 캐시 키 설계에 직결됨.\r\n\r\n---\r\n\r\n## 2.2 페이지네이션 [SHOULD]\r\n\r\n### 규칙\r\n\r\n- **기본**: 커서 기반(Cursor-based) 페이지네이션 사용\r\n- **예외**: 관리자 API(`/api/v1/admin/...`)에 한해 offset 허용\r\n- 커서 값은 opaque string (클라이언트가 내부 구조를 몰라야 함)\r\n- 기본 `size`는 20, 최대 100\r\n\r\n### ✅ Good — 커서 기반 응답\r\n\r\n```json\r\n{\r\n  \"success\": true,\r\n  \"data\": {\r\n    \"items\": [\r\n      { \"id\": \"01941a00-...\", \"title\": \"Graph Theory 101\" },\r\n      { \"id\": \"01941a01-...\", \"title\": \"Spaced Repetition\" }\r\n    ],\r\n    \"cursor\": {\r\n      \"next\": \"eyJpZCI6IjAxOTQxYTAxLi4uIiwiY3JlYXRlZEF0IjoiMjAyNi0wNS0xMlQwOTowMDowMFoifQ==\",\r\n      \"hasNext\": true\r\n    }\r\n  },\r\n  \"meta\": {\r\n    \"timestamp\": \"2026-05-12T09:00:00Z\",\r\n    \"traceId\": \"trace-abc-123\"\r\n  }\r\n}\r\n```\r\n\r\n### ❌ Bad — 일반 API에 offset 사용\r\n\r\n```json\r\n{\r\n  \"data\": {\r\n    \"items\": [...],\r\n    \"page\": 3,\r\n    \"totalPages\": 42,\r\n    \"totalElements\": 834\r\n  }\r\n}\r\n```\r\n\r\n> **이유**: offset 방식은 데이터가 많아지면 `OFFSET N`이 full scan에 가까워져 성능이 급락함. 커서 방식은 인덱스를 타므로 데이터 규모에 무관하게 일정한 성능을 보장함.\r\n\r\n---\r\n\r\n## 2.3 에러 응답 [MUST]\r\n\r\n### 규칙\r\n\r\n- 모든 에러 응답은 **RFC 7807 Problem Details** 형식을 따름\r\n- 서비스별 에러 코드 prefix를 부여:\r\n  - `PLAT-xxx` : Platform Service (auth, audit, billing, notification)\r\n  - `ENGM-xxx` : Engagement Service (community, gamification)\r\n  - `KNOW-xxx` : Knowledge Service (note, graph, chunking)\r\n  - `LRNG-xxx` : Learning Service (card, srs, ai)\r\n- 코드 번호는 001부터 순차 증가\r\n- `detail` 필드는 사용자에게 노출 가능한 메시지, `instance`에 trace 정보 포함\r\n\r\n### ✅ Good — RFC 7807 준수\r\n\r\n```json\r\n{\r\n  \"type\": \"https://api.synapse.app/errors/KNOW-003\",\r\n  \"title\": \"Note Not Found\",\r\n  \"status\": 404,\r\n  \"detail\": \"요청한 노트(id=01941a00-...)를 찾을 수 없어\",\r\n  \"instance\": \"/api/v1/notes/01941a00-...\",\r\n  \"code\": \"KNOW-003\",\r\n  \"traceId\": \"trace-xyz-789\"\r\n}\r\n```\r\n\r\n### ❌ Bad — 비표준 에러 응답\r\n\r\n```json\r\n{\r\n  \"error\": true,\r\n  \"message\": \"not found\",\r\n  \"errorCode\": 404\r\n}\r\n```\r\n\r\n> **이유**: RFC 7807은 프론트엔드가 에러를 프로그래밍적으로 처리할 수 있는 표준 스키마를 제공함. 서비스별 코드 prefix는 운영 중 에러 발생 서비스를 즉시 식별할 수 있게 해줌.\r\n\r\n---\r\n\r\n## 2.4 Soft Delete [MUST]\r\n\r\n### 규칙\r\n\r\n- **사용자 데이터**는 반드시 soft delete — `deleted_at` 타임스탬프로 관리\r\n- **물리 삭제**는 시스템 내부 데이터(캐시, 임시 토큰 등)에만 허용\r\n- 조회 시 `deleted_at IS NULL` 조건을 기본 적용 (`@Where` 또는 `@SQLRestriction`)\r\n- 복구 API 제공 시 30일 이내만 허용\r\n\r\n### ✅ Good — Soft Delete Entity\r\n\r\n```java\r\n@Entity\r\n@SQLRestriction(\"deleted_at IS NULL\")\r\npublic class Note extends BaseEntity {\r\n\r\n    @Id\r\n    private UUID id;\r\n\r\n    private String title;\r\n    private String content;\r\n\r\n    private LocalDateTime deletedAt;  // null = 활성\r\n\r\n    public void softDelete() {\r\n        this.deletedAt = LocalDateTime.now();\r\n    }\r\n\r\n    public void restore() {\r\n        this.deletedAt = null;\r\n    }\r\n}\r\n```\r\n\r\n### ❌ Bad — 사용자 데이터 물리 삭제\r\n\r\n```java\r\n// 사용자 노트를 DB에서 바로 삭제 -> 복구 불가\r\npublic void deleteNote(UUID noteId) {\r\n    noteRepository.deleteById(noteId);  // 물리 삭제!\r\n}\r\n```\r\n\r\n> **이유**: 사용자 데이터는 실수 삭제 복구, 감사 추적, 법적 보관 의무(GDPR 30일 등)를 위해 soft delete가 필수임. 물리 삭제하면 이 모든 게 불가능해짐.\r\n\r\n---\r\n\r\n## 2.5 DIP/OCP 준수 [MUST]\r\n\r\n### 규칙\r\n\r\n- 모듈 간 의존은 **인터페이스(추상)** 를 통해서만 허용\r\n- 구현체를 직접 참조하면 모듈 결합도가 높아져 독립 배포/테스트가 불가능해짐\r\n- Spring Modulith 경계를 넘는 호출은 반드시 `@ApplicationModuleListener` 이벤트 또는 exposed interface 사용\r\n\r\n### ✅ Good — 인터페이스 의존\r\n\r\n```java\r\n// knowledge 모듈의 exposed API (인터페이스)\r\npublic interface NoteQueryPort {\r\n    NoteDto findById(UUID noteId);\r\n    List<NoteDto> findByUserId(UUID userId);\r\n}\r\n\r\n// learning 모듈에서 사용\r\n@Service\r\n@RequiredArgsConstructor\r\npublic class CardGenerationService {\r\n\r\n    private final NoteQueryPort noteQueryPort;  // 인터페이스 의존\r\n\r\n    public Card generateFromNote(UUID noteId) {\r\n        NoteDto note = noteQueryPort.findById(noteId);\r\n        return cardFactory.create(note);\r\n    }\r\n}\r\n```\r\n\r\n### ❌ Bad — 구현체 직접 참조\r\n\r\n```java\r\n// learning 모듈에서 knowledge의 구현체를 직접 import\r\nimport com.synapse.knowledge.note.infrastructure.persistence.NoteQueryRepository;\r\n\r\n@Service\r\n@RequiredArgsConstructor\r\npublic class CardGenerationService {\r\n\r\n    // 구현체 직접 의존 -> 모듈 경계 위반!\r\n    private final NoteQueryRepository noteQueryRepository;\r\n\r\n    public Card generateFromNote(UUID noteId) {\r\n        NoteEntity entity = noteQueryRepository.findById(noteId);\r\n        return cardFactory.create(entity);\r\n    }\r\n}\r\n```\r\n\r\n> **이유**: DIP(Dependency Inversion Principle)를 지켜야 각 모듈이 독립적으로 테스트/배포 가능하고, OCP(Open-Closed Principle)에 의해 구현이 바뀌어도 호출 측 코드를 수정할 필요가 없음. Modulith에서 이거 안 지키면 순환 의존으로 빌드 자체가 터짐.\r\n\r\n---\r\n\r\n## 요약 체크리스트\r\n\r\n| # | 규칙 | 수준 |\r\n|---|------|------|\r\n| 2.1 | RESTful URI — kebab-case, /api/v1/, 3~4 depth | [MUST] |\r\n| 2.2 | 커서 기반 페이지네이션 (관리자 API만 offset) | [SHOULD] |\r\n| 2.3 | RFC 7807 에러 + 서비스별 코드 prefix | [MUST] |\r\n| 2.4 | 사용자 데이터 soft delete | [MUST] |\r\n| 2.5 | DIP/OCP — 모듈 간 인터페이스 의존만 허용 | [MUST] |\r\n"
}